{
  "project_info": {
    "project_number": "165602985749",
    "firebase_url": "https://testproject-d8afb.firebaseio.com",
    "project_id": "testproject-d8afb",
    "storage_bucket": "testproject-d8afb.appspot.com"
  },
  "client": [
    {
      "client_info": {
        "mobilesdk_app_id": "1:165602985749:android:97b694b2808880f9",
        "android_client_info": {
          "package_name": "com.tutorial.websession"
        }
      },
      "oauth_client": [
        {
          "client_id": "165602985749-clhcq152r4r9a7er2imfhgcnjq51t9vd.apps.googleusercontent.com",
          "client_type": 3
        }
      ],
      "api_key": [
        {
          "current_key": "AIzaSyApe5aVvN5slymFRid729qwMi4iocKZ5EU"
        }
      ],
      "services": {
        "analytics_service": {
          "status": 1
        },
        "appinvite_service": {
          "status": 1,
          "other_platform_oauth_client": []
        },
        "ads_service": {
          "status": 2
        }
      }
    }
  ],
  "configuration_version": "1"
}